…
## Warning: Class 9: ENN = NA for class with only 1 patch.

## Warning: Class 78: ENN = NA for class with only 1 patch.

## Warning: Class 1: ENN = NA for class with only 1 patch.

## Warning: Number of classes must be >= 3, IJI = NA.

## Warning: Class 6: ENN = NA for class with only 1 patch.

## Warning: Class 14: ENN = NA for class with only 1 patch.

Buffer5k

## # A tibble: 1,372 x 8
##    layer level     class    id metric      value plot_id percentage_inside
##    <int> <chr>     <int> <int> <chr>       <dbl>   <int>             <dbl>
##  1     1 landscape    NA    NA ai         62.9         1               100
##  2     1 landscape    NA    NA cohesion   64.6         1               100
##  3     1 landscape    NA    NA contag     17.9         1               100
##  4     1 landscape    NA    NA division    0.778       1               100
##  5     1 landscape    NA    NA enn_cv     NA           1               100
##  6     1 landscape    NA    NA enn_mn     NA           1               100
##  7     1 landscape    NA    NA enn_sd     NA           1               100
##  8     1 landscape    NA    NA iji        74.8         1               100
##  9     1 landscape    NA    NA lsi         2.05        1               100
## 10     1 landscape    NA    NA mesh     2224           1               100
## # ... with 1,362 more rows
…
